{
	"id": "30996cea-f77e-4d09-a33e-244bbd96f54e",
	"name": "Production",
	"values": [
		{
			"key": "baseUrl",
			"value": "http://carsapi-env.eba-mppajc9p.us-east-1.elasticbeanstalk.com/",
			"enabled": true
		}
	],
	"_postman_variable_scope": "environment",
	"_postman_exported_at": "2020-05-30T22:37:25.970Z",
	"_postman_exported_using": "Postman/7.22.1"
}